<?xml version="1.0" encoding="UTF-8"?>
<testsuite xmlns:xsi="http://www.w3.org/2001/XMLSchema-instance" xsi:noNamespaceSchemaLocation="https://maven.apache.org/surefire/maven-surefire-plugin/xsd/surefire-test-report-3.0.xsd" version="3.0" name="TestSuite" time="25.994" tests="34" errors="0" skipped="0" failures="0">
  <properties>
    <property name="java.specification.version" value="18"/>
    <property name="sun.cpu.isalist" value="amd64"/>
    <property name="sun.jnu.encoding" value="Cp1252"/>
    <property name="java.class.path" value="C:\Users\Ankush\eclipse-workspace\RestAssuredAutomation\target\test-classes;C:\Users\Ankush\eclipse-workspace\RestAssuredAutomation\target\classes;C:\WINDOWS\system32\config\systemprofile\.m2\repository\org\testng\testng\7.4.0\testng-7.4.0.jar;C:\WINDOWS\system32\config\systemprofile\.m2\repository\com\beust\jcommander\1.78\jcommander-1.78.jar;C:\WINDOWS\system32\config\systemprofile\.m2\repository\org\webjars\jquery\3.5.1\jquery-3.5.1.jar;C:\WINDOWS\system32\config\systemprofile\.m2\repository\org\apache\poi\poi-ooxml\4.1.0\poi-ooxml-4.1.0.jar;C:\WINDOWS\system32\config\systemprofile\.m2\repository\org\apache\poi\poi-ooxml-schemas\4.1.0\poi-ooxml-schemas-4.1.0.jar;C:\WINDOWS\system32\config\systemprofile\.m2\repository\org\apache\xmlbeans\xmlbeans\3.1.0\xmlbeans-3.1.0.jar;C:\WINDOWS\system32\config\systemprofile\.m2\repository\org\apache\commons\commons-compress\1.18\commons-compress-1.18.jar;C:\WINDOWS\system32\config\systemprofile\.m2\repository\com\github\virtuald\curvesapi\1.06\curvesapi-1.06.jar;C:\WINDOWS\system32\config\systemprofile\.m2\repository\org\apache\poi\poi\4.1.0\poi-4.1.0.jar;C:\WINDOWS\system32\config\systemprofile\.m2\repository\commons-codec\commons-codec\1.12\commons-codec-1.12.jar;C:\WINDOWS\system32\config\systemprofile\.m2\repository\org\apache\commons\commons-collections4\4.3\commons-collections4-4.3.jar;C:\WINDOWS\system32\config\systemprofile\.m2\repository\org\apache\commons\commons-math3\3.6.1\commons-math3-3.6.1.jar;C:\WINDOWS\system32\config\systemprofile\.m2\repository\io\rest-assured\rest-assured\4.5.1\rest-assured-4.5.1.jar;C:\WINDOWS\system32\config\systemprofile\.m2\repository\org\codehaus\groovy\groovy\3.0.9\groovy-3.0.9.jar;C:\WINDOWS\system32\config\systemprofile\.m2\repository\org\codehaus\groovy\groovy-xml\3.0.9\groovy-xml-3.0.9.jar;C:\WINDOWS\system32\config\systemprofile\.m2\repository\org\apache\httpcomponents\httpclient\4.5.13\httpclient-4.5.13.jar;C:\WINDOWS\system32\config\systemprofile\.m2\repository\org\apache\httpcomponents\httpcore\4.4.13\httpcore-4.4.13.jar;C:\WINDOWS\system32\config\systemprofile\.m2\repository\commons-logging\commons-logging\1.2\commons-logging-1.2.jar;C:\WINDOWS\system32\config\systemprofile\.m2\repository\org\apache\httpcomponents\httpmime\4.5.13\httpmime-4.5.13.jar;C:\WINDOWS\system32\config\systemprofile\.m2\repository\org\hamcrest\hamcrest\2.1\hamcrest-2.1.jar;C:\WINDOWS\system32\config\systemprofile\.m2\repository\org\ccil\cowan\tagsoup\tagsoup\1.2.1\tagsoup-1.2.1.jar;C:\WINDOWS\system32\config\systemprofile\.m2\repository\io\rest-assured\json-path\4.5.1\json-path-4.5.1.jar;C:\WINDOWS\system32\config\systemprofile\.m2\repository\org\codehaus\groovy\groovy-json\3.0.9\groovy-json-3.0.9.jar;C:\WINDOWS\system32\config\systemprofile\.m2\repository\io\rest-assured\rest-assured-common\4.5.1\rest-assured-common-4.5.1.jar;C:\WINDOWS\system32\config\systemprofile\.m2\repository\io\rest-assured\xml-path\4.5.1\xml-path-4.5.1.jar;C:\WINDOWS\system32\config\systemprofile\.m2\repository\com\googlecode\json-simple\json-simple\1.1.1\json-simple-1.1.1.jar;C:\WINDOWS\system32\config\systemprofile\.m2\repository\junit\junit\4.10\junit-4.10.jar;C:\WINDOWS\system32\config\systemprofile\.m2\repository\org\hamcrest\hamcrest-core\1.1\hamcrest-core-1.1.jar;C:\WINDOWS\system32\config\systemprofile\.m2\repository\com\aventstack\extentreports\3.1.2\extentreports-3.1.2.jar;C:\WINDOWS\system32\config\systemprofile\.m2\repository\org\freemarker\freemarker\2.3.23\freemarker-2.3.23.jar;C:\WINDOWS\system32\config\systemprofile\.m2\repository\org\mongodb\mongodb-driver\3.3.0\mongodb-driver-3.3.0.jar;C:\WINDOWS\system32\config\systemprofile\.m2\repository\org\mongodb\bson\3.3.0\bson-3.3.0.jar;C:\WINDOWS\system32\config\systemprofile\.m2\repository\org\mongodb\mongodb-driver-core\3.3.0\mongodb-driver-core-3.3.0.jar;C:\WINDOWS\system32\config\systemprofile\.m2\repository\org\jsoup\jsoup\1.9.2\jsoup-1.9.2.jar;C:\WINDOWS\system32\config\systemprofile\.m2\repository\com\google\code\gson\gson\2.8.0\gson-2.8.0.jar;C:\WINDOWS\system32\config\systemprofile\.m2\repository\org\apache\commons\commons-lang3\3.0\commons-lang3-3.0.jar;C:\WINDOWS\system32\config\systemprofile\.m2\repository\commons-io\commons-io\1.3.2\commons-io-1.3.2.jar;C:\WINDOWS\system32\config\systemprofile\.m2\repository\log4j\log4j\1.2.17\log4j-1.2.17.jar;"/>
    <property name="java.vm.vendor" value="Oracle Corporation"/>
    <property name="sun.arch.data.model" value="64"/>
    <property name="user.variant" value=""/>
    <property name="java.vendor.url" value="https://java.oracle.com/"/>
    <property name="user.timezone" value="America/New_York"/>
    <property name="os.name" value="Windows 11"/>
    <property name="java.vm.specification.version" value="18"/>
    <property name="sun.java.launcher" value="SUN_STANDARD"/>
    <property name="user.country" value="IN"/>
    <property name="sun.boot.library.path" value="C:\Program Files\Java\jdk-18.0.1.1\bin"/>
    <property name="sun.java.command" value="C:\Windows\Temp\surefire13708479704603156495\surefirebooter-20230125132900594_3.jar C:\Windows\Temp\surefire13708479704603156495 2023-01-25T13-28-59_823-jvmRun1 surefire-20230125132900594_1tmp surefire_0-20230125132900594_2tmp"/>
    <property name="jdk.debug" value="release"/>
    <property name="surefire.test.class.path" value="C:\Users\Ankush\eclipse-workspace\RestAssuredAutomation\target\test-classes;C:\Users\Ankush\eclipse-workspace\RestAssuredAutomation\target\classes;C:\WINDOWS\system32\config\systemprofile\.m2\repository\org\testng\testng\7.4.0\testng-7.4.0.jar;C:\WINDOWS\system32\config\systemprofile\.m2\repository\com\beust\jcommander\1.78\jcommander-1.78.jar;C:\WINDOWS\system32\config\systemprofile\.m2\repository\org\webjars\jquery\3.5.1\jquery-3.5.1.jar;C:\WINDOWS\system32\config\systemprofile\.m2\repository\org\apache\poi\poi-ooxml\4.1.0\poi-ooxml-4.1.0.jar;C:\WINDOWS\system32\config\systemprofile\.m2\repository\org\apache\poi\poi-ooxml-schemas\4.1.0\poi-ooxml-schemas-4.1.0.jar;C:\WINDOWS\system32\config\systemprofile\.m2\repository\org\apache\xmlbeans\xmlbeans\3.1.0\xmlbeans-3.1.0.jar;C:\WINDOWS\system32\config\systemprofile\.m2\repository\org\apache\commons\commons-compress\1.18\commons-compress-1.18.jar;C:\WINDOWS\system32\config\systemprofile\.m2\repository\com\github\virtuald\curvesapi\1.06\curvesapi-1.06.jar;C:\WINDOWS\system32\config\systemprofile\.m2\repository\org\apache\poi\poi\4.1.0\poi-4.1.0.jar;C:\WINDOWS\system32\config\systemprofile\.m2\repository\commons-codec\commons-codec\1.12\commons-codec-1.12.jar;C:\WINDOWS\system32\config\systemprofile\.m2\repository\org\apache\commons\commons-collections4\4.3\commons-collections4-4.3.jar;C:\WINDOWS\system32\config\systemprofile\.m2\repository\org\apache\commons\commons-math3\3.6.1\commons-math3-3.6.1.jar;C:\WINDOWS\system32\config\systemprofile\.m2\repository\io\rest-assured\rest-assured\4.5.1\rest-assured-4.5.1.jar;C:\WINDOWS\system32\config\systemprofile\.m2\repository\org\codehaus\groovy\groovy\3.0.9\groovy-3.0.9.jar;C:\WINDOWS\system32\config\systemprofile\.m2\repository\org\codehaus\groovy\groovy-xml\3.0.9\groovy-xml-3.0.9.jar;C:\WINDOWS\system32\config\systemprofile\.m2\repository\org\apache\httpcomponents\httpclient\4.5.13\httpclient-4.5.13.jar;C:\WINDOWS\system32\config\systemprofile\.m2\repository\org\apache\httpcomponents\httpcore\4.4.13\httpcore-4.4.13.jar;C:\WINDOWS\system32\config\systemprofile\.m2\repository\commons-logging\commons-logging\1.2\commons-logging-1.2.jar;C:\WINDOWS\system32\config\systemprofile\.m2\repository\org\apache\httpcomponents\httpmime\4.5.13\httpmime-4.5.13.jar;C:\WINDOWS\system32\config\systemprofile\.m2\repository\org\hamcrest\hamcrest\2.1\hamcrest-2.1.jar;C:\WINDOWS\system32\config\systemprofile\.m2\repository\org\ccil\cowan\tagsoup\tagsoup\1.2.1\tagsoup-1.2.1.jar;C:\WINDOWS\system32\config\systemprofile\.m2\repository\io\rest-assured\json-path\4.5.1\json-path-4.5.1.jar;C:\WINDOWS\system32\config\systemprofile\.m2\repository\org\codehaus\groovy\groovy-json\3.0.9\groovy-json-3.0.9.jar;C:\WINDOWS\system32\config\systemprofile\.m2\repository\io\rest-assured\rest-assured-common\4.5.1\rest-assured-common-4.5.1.jar;C:\WINDOWS\system32\config\systemprofile\.m2\repository\io\rest-assured\xml-path\4.5.1\xml-path-4.5.1.jar;C:\WINDOWS\system32\config\systemprofile\.m2\repository\com\googlecode\json-simple\json-simple\1.1.1\json-simple-1.1.1.jar;C:\WINDOWS\system32\config\systemprofile\.m2\repository\junit\junit\4.10\junit-4.10.jar;C:\WINDOWS\system32\config\systemprofile\.m2\repository\org\hamcrest\hamcrest-core\1.1\hamcrest-core-1.1.jar;C:\WINDOWS\system32\config\systemprofile\.m2\repository\com\aventstack\extentreports\3.1.2\extentreports-3.1.2.jar;C:\WINDOWS\system32\config\systemprofile\.m2\repository\org\freemarker\freemarker\2.3.23\freemarker-2.3.23.jar;C:\WINDOWS\system32\config\systemprofile\.m2\repository\org\mongodb\mongodb-driver\3.3.0\mongodb-driver-3.3.0.jar;C:\WINDOWS\system32\config\systemprofile\.m2\repository\org\mongodb\bson\3.3.0\bson-3.3.0.jar;C:\WINDOWS\system32\config\systemprofile\.m2\repository\org\mongodb\mongodb-driver-core\3.3.0\mongodb-driver-core-3.3.0.jar;C:\WINDOWS\system32\config\systemprofile\.m2\repository\org\jsoup\jsoup\1.9.2\jsoup-1.9.2.jar;C:\WINDOWS\system32\config\systemprofile\.m2\repository\com\google\code\gson\gson\2.8.0\gson-2.8.0.jar;C:\WINDOWS\system32\config\systemprofile\.m2\repository\org\apache\commons\commons-lang3\3.0\commons-lang3-3.0.jar;C:\WINDOWS\system32\config\systemprofile\.m2\repository\commons-io\commons-io\1.3.2\commons-io-1.3.2.jar;C:\WINDOWS\system32\config\systemprofile\.m2\repository\log4j\log4j\1.2.17\log4j-1.2.17.jar;"/>
    <property name="sun.cpu.endian" value="little"/>
    <property name="user.home" value="C:\WINDOWS\system32\config\systemprofile"/>
    <property name="user.language" value="en"/>
    <property name="java.specification.vendor" value="Oracle Corporation"/>
    <property name="java.version.date" value="2022-04-22"/>
    <property name="java.home" value="C:\Program Files\Java\jdk-18.0.1.1"/>
    <property name="file.separator" value="\"/>
    <property name="basedir" value="C:\Users\Ankush\eclipse-workspace\RestAssuredAutomation"/>
    <property name="java.vm.compressedOopsMode" value="32-bit"/>
    <property name="line.separator" value="&#10;"/>
    <property name="java.vm.specification.vendor" value="Oracle Corporation"/>
    <property name="java.specification.name" value="Java Platform API Specification"/>
    <property name="surefire.real.class.path" value="C:\Windows\Temp\surefire13708479704603156495\surefirebooter-20230125132900594_3.jar"/>
    <property name="user.script" value=""/>
    <property name="sun.management.compiler" value="HotSpot 64-Bit Tiered Compilers"/>
    <property name="java.runtime.version" value="18.0.1.1+2-6"/>
    <property name="user.name" value="DESKTOP-OT8VNT7$"/>
    <property name="path.separator" value=";"/>
    <property name="os.version" value="10.0"/>
    <property name="java.runtime.name" value="Java(TM) SE Runtime Environment"/>
    <property name="file.encoding" value="UTF-8"/>
    <property name="java.vm.name" value="Java HotSpot(TM) 64-Bit Server VM"/>
    <property name="localRepository" value="C:\WINDOWS\system32\config\systemprofile\.m2\repository"/>
    <property name="java.vendor.url.bug" value="https://bugreport.java.com/bugreport/"/>
    <property name="java.io.tmpdir" value="C:\WINDOWS\TEMP\"/>
    <property name="java.version" value="18.0.1.1"/>
    <property name="user.dir" value="C:\Users\Ankush\eclipse-workspace\RestAssuredAutomation"/>
    <property name="os.arch" value="amd64"/>
    <property name="java.vm.specification.name" value="Java Virtual Machine Specification"/>
    <property name="sun.os.patch.level" value=""/>
    <property name="native.encoding" value="Cp1252"/>
    <property name="java.library.path" value="C:\Program Files\Java\jdk-18.0.1.1\bin;C:\WINDOWS\Sun\Java\bin;C:\WINDOWS\system32;C:\WINDOWS;C:\ProgramData\Jenkins\.jenkins\tools\hudson.tasks.Maven_MavenInstallation\MAVEN_HOME/bin;C:\Program Files\Java\jdk-18.0.1.1/bin;C:\Program Files\Java\jdk-18.0.1.1/bin;C:\Python311\Scripts\;C:\Python311\;C:\Program Files\Java\jdk-18.0.1.1\bin;C:\WINDOWS\system32;C:\WINDOWS;C:\WINDOWS\System32\Wbem;C:\WINDOWS\System32\WindowsPowerShell\v1.0\;C:\WINDOWS\System32\OpenSSH\;C:\Program Files\Git\cmd;C:\Program Files\dotnet\;C:\Program Files (x86)\Common Files\Oracle\Java\javapath;C:\Program Files\Common Files\Oracle\Java\javapath;C:\Users\Ankush\AppData\Local\Android\Sdk\platform-tools;C:\Users\Ankush\AppData\Local\Android\Sdk\tools;C:\Users\Ankush\AppData\Local\Android\Sdk\build-tools;C:\Users\Ankush\AppData\Local\Android\Sdk\build-tools\bin;%JAVA_HOME%;%MAVEN_HOME%;C:\Python311\Scripts\;C:\Python311\;C:\Program Files\Java\jdk-18.0.1.1\bin;C:\WINDOWS\system32;C:\WINDOWS;C:\WINDOWS\System32\Wbem;C:\WINDOWS\System32\WindowsPowerShell\v1.0\;C:\WINDOWS\System32\OpenSSH\;C:\Program Files\Git\cmd;C:\Program Files\dotnet\;C:\Program Files (x86)\Common Files\Oracle\Java\javapath;C:\Program Files\Common Files\Oracle\Java\javapath;C:\Users\Ankush\AppData\Local\Android\Sdk\platform-tools;C:\Users\Ankush\AppData\Local\Android\Sdk\tools;C:\Users\Ankush\AppData\Local\Android\Sdk\build-tools;C:\Users\Ankush\AppData\Local\Android\Sdk\build-tools\bin;%JAVA_HOME%;%MAVEN_HOME%;C:\Python311\Scripts\;C:\Python311\;C:\Program Files\Java\jdk-18.0.1.1\bin;C:\WINDOWS\system32;C:\WINDOWS;C:\WINDOWS\System32\Wbem;C:\WINDOWS\System32\WindowsPowerShell\v1.0\;C:\WINDOWS\System32\OpenSSH\;C:\Program Files\Git\cmd;C:\Program Files\dotnet\;C:\Program Files (x86)\Common Files\Oracle\Java\javapath;C:\Program Files\Common Files\Oracle\Java\javapath;C:\Users\Ankush\AppData\Local\Android\Sdk\platform-tools;C:\Users\Ankush\AppData\Local\Android\Sdk\tools;C:\Users\Ankush\AppData\Local\Android\Sdk\build-tools;C:\Users\Ankush\AppData\Local\Android\Sdk\build-tools\bin;%JAVA_HOME%;%MAVEN_HOME%;C:\WINDOWS\System32;C:\Program Files\nodejs\;C:\ProgramData\chocolatey\bin;;C:\Program Files\nodejs\;C:\ProgramData\chocolatey\bin;;C:\Program Files\nodejs\;C:\ProgramData\chocolatey\bin;C:\WINDOWS\system32\config\systemprofile\AppData\Local\Microsoft\WindowsApps;."/>
    <property name="java.vm.info" value="mixed mode, sharing"/>
    <property name="java.vendor" value="Oracle Corporation"/>
    <property name="java.vm.version" value="18.0.1.1+2-6"/>
    <property name="sun.io.unicode.encoding" value="UnicodeLittle"/>
    <property name="java.class.version" value="62.0"/>
  </properties>
  <testcase name="checkContentEncoding" classname="com.RestAssured.testCases.TC001_GET_REQUEST" time="0.017">
    <system-out><![CDATA[ INFO [main] (TC001_GET_REQUEST.java:19)- *****************Started TC001_Get_List_of_User*********************
 INFO [main] (TC001_GET_REQUEST.java:97)- *****************Checking Content Encoding*********************
 INFO [main] (TC001_GET_REQUEST.java:100)- Content-Encoding is ==> gzip
]]></system-out>
  </testcase>
  <testcase name="checkContentLength" classname="com.RestAssured.testCases.TC001_GET_REQUEST" time="0.003">
    <system-out><![CDATA[ INFO [main] (TC001_GET_REQUEST.java:106)- *****************Checking Content Length*********************
 INFO [main] (TC001_GET_REQUEST.java:109)- Content-Length is ==> null
]]></system-out>
  </testcase>
  <testcase name="checkContentType" classname="com.RestAssured.testCases.TC001_GET_REQUEST" time="0.004">
    <system-out><![CDATA[ INFO [main] (TC001_GET_REQUEST.java:79)- *****************Checking Content Type*********************
 INFO [main] (TC001_GET_REQUEST.java:82)- Content type is ==> application/json; charset=utf-8
]]></system-out>
  </testcase>
  <testcase name="checkCookies" classname="com.RestAssured.testCases.TC001_GET_REQUEST" time="0.003">
    <system-out><![CDATA[ INFO [main] (TC001_GET_REQUEST.java:115)- *****************Checking Cookies*********************
]]></system-out>
  </testcase>
  <testcase name="checkResponseBody" classname="com.RestAssured.testCases.TC001_GET_REQUEST" time="0.038">
    <system-out><![CDATA[ INFO [main] (TC001_GET_REQUEST.java:37)- *****************Checking Response Body*********************
 INFO [main] (TC001_GET_REQUEST.java:40)- Response Body==> {"page":2,"per_page":6,"total":12,"total_pages":2,"data":[{"id":7,"email":"michael.lawson@reqres.in","first_name":"Michael","last_name":"Lawson","avatar":"https://reqres.in/img/faces/7-image.jpg"},{"id":8,"email":"lindsay.ferguson@reqres.in","first_name":"Lindsay","last_name":"Ferguson","avatar":"https://reqres.in/img/faces/8-image.jpg"},{"id":9,"email":"tobias.funke@reqres.in","first_name":"Tobias","last_name":"Funke","avatar":"https://reqres.in/img/faces/9-image.jpg"},{"id":10,"email":"byron.fields@reqres.in","first_name":"Byron","last_name":"Fields","avatar":"https://reqres.in/img/faces/10-image.jpg"},{"id":11,"email":"george.edwards@reqres.in","first_name":"George","last_name":"Edwards","avatar":"https://reqres.in/img/faces/11-image.jpg"},{"id":12,"email":"rachel.howell@reqres.in","first_name":"Rachel","last_name":"Howell","avatar":"https://reqres.in/img/faces/12-image.jpg"}],"support":{"url":"https://reqres.in/#support-heading","text":"To keep ReqRes free, contributions towards server costs are appreciated!"}}
]]></system-out>
  </testcase>
  <testcase name="checkResponseTime" classname="com.RestAssured.testCases.TC001_GET_REQUEST" time="0.005">
    <system-out><![CDATA[ INFO [main] (TC001_GET_REQUEST.java:57)- *****************Checking Response Time*********************
 INFO [main] (TC001_GET_REQUEST.java:60)- Response Time is==> 1132
]]></system-out>
  </testcase>
  <testcase name="checkServerType" classname="com.RestAssured.testCases.TC001_GET_REQUEST" time="0.001">
    <system-out><![CDATA[ INFO [main] (TC001_GET_REQUEST.java:88)- *****************Checking Server Type*********************
 INFO [main] (TC001_GET_REQUEST.java:91)- Server Type is ==> cloudflare
]]></system-out>
  </testcase>
  <testcase name="checkStatusCode" classname="com.RestAssured.testCases.TC001_GET_REQUEST" time="0.003">
    <system-out><![CDATA[ INFO [main] (TC001_GET_REQUEST.java:47)- *****************Checking Status Code*********************
 INFO [main] (TC001_GET_REQUEST.java:50)- Status Code==> 200
]]></system-out>
  </testcase>
  <testcase name="checkStatusLine" classname="com.RestAssured.testCases.TC001_GET_REQUEST" time="0.008">
    <system-out><![CDATA[ INFO [main] (TC001_GET_REQUEST.java:70)- *****************Checking Status Line*********************
 INFO [main] (TC001_GET_REQUEST.java:73)- Status Line is==> HTTP/1.1 200 OK
]]></system-out>
  </testcase>
  <testcase name="checkContentType" classname="com.RestAssured.testCases.TC002_POST_REQUEST" time="0.004">
    <system-out><![CDATA[ INFO [main] (TC001_GET_REQUEST.java:123)- *****************Finished TC001_Get_List_of_User*********************
 INFO [main] (TC002_POST_REQUEST.java:24)- *****************Started TC002_Post_User_Details*********************
 INFO [main] (TC002_POST_REQUEST.java:93)- *****************Checking Content Type*********************
 INFO [main] (TC002_POST_REQUEST.java:96)- Content type is ==> application/json; charset=utf-8
]]></system-out>
  </testcase>
  <testcase name="checkResponseTime" classname="com.RestAssured.testCases.TC002_POST_REQUEST" time="0.005">
    <system-out><![CDATA[ INFO [main] (TC002_POST_REQUEST.java:71)- *****************Checking Response Time*********************
 INFO [main] (TC002_POST_REQUEST.java:74)- Response Time is==> 448
]]></system-out>
  </testcase>
  <testcase name="checkServerType" classname="com.RestAssured.testCases.TC002_POST_REQUEST" time="0.015">
    <system-out><![CDATA[ INFO [main] (TC002_POST_REQUEST.java:102)- *****************Checking Server Type*********************
 INFO [main] (TC002_POST_REQUEST.java:105)- Server Type is ==> cloudflare
]]></system-out>
  </testcase>
  <testcase name="checkStatusCode" classname="com.RestAssured.testCases.TC002_POST_REQUEST" time="0.007">
    <system-out><![CDATA[ INFO [main] (TC002_POST_REQUEST.java:61)- *****************Checking Status Code*********************
 INFO [main] (TC002_POST_REQUEST.java:64)- Status Code==> 201
]]></system-out>
  </testcase>
  <testcase name="checkStatusLine" classname="com.RestAssured.testCases.TC002_POST_REQUEST" time="0.126">
    <system-out><![CDATA[ INFO [main] (TC002_POST_REQUEST.java:84)- *****************Checking Status Line*********************
 INFO [main] (TC002_POST_REQUEST.java:87)- Status Line is==> HTTP/1.1 201 Created
]]></system-out>
  </testcase>
  <testcase name="checkSuccessCode" classname="com.RestAssured.testCases.TC002_POST_REQUEST" time="2.393">
    <system-out><![CDATA[ INFO [main] (TC002_POST_REQUEST.java:49)- *****************Checking Success Code*********************
 INFO [main] (TC002_POST_REQUEST.java:52)- Success Code ==> JohnY
]]></system-out>
  </testcase>
  <testcase name="checkContentEncoding" classname="com.RestAssured.testCases.TC003_GET_REQUEST" time="0.002">
    <system-out><![CDATA[ INFO [main] (TC002_POST_REQUEST.java:114)- *****************Finished TC002_Post_User_Details*********************
 INFO [main] (TC003_GET_REQUEST.java:19)- *****************Started TC003_Get_Single_User_Details*********************
 INFO [main] (TC003_GET_REQUEST.java:96)- *****************Checking Content Encoding*********************
 INFO [main] (TC003_GET_REQUEST.java:99)- Content-Encoding is ==> gzip
]]></system-out>
  </testcase>
  <testcase name="checkContentLength" classname="com.RestAssured.testCases.TC003_GET_REQUEST" time="0.006">
    <system-out><![CDATA[ INFO [main] (TC003_GET_REQUEST.java:105)- *****************Checking Content Length*********************
 INFO [main] (TC003_GET_REQUEST.java:108)- Content-Length is ==> null
]]></system-out>
  </testcase>
  <testcase name="checkContentType" classname="com.RestAssured.testCases.TC003_GET_REQUEST" time="0.002">
    <system-out><![CDATA[ INFO [main] (TC003_GET_REQUEST.java:78)- *****************Checking Content Type*********************
 INFO [main] (TC003_GET_REQUEST.java:81)- Content type is ==> application/json; charset=utf-8
]]></system-out>
  </testcase>
  <testcase name="checkResponseBody" classname="com.RestAssured.testCases.TC003_GET_REQUEST" time="0.008">
    <system-out><![CDATA[ INFO [main] (TC003_GET_REQUEST.java:36)- *****************Checking Response Body*********************
 INFO [main] (TC003_GET_REQUEST.java:39)- Response Body==> {"data":{"id":2,"email":"janet.weaver@reqres.in","first_name":"Janet","last_name":"Weaver","avatar":"https://reqres.in/img/faces/2-image.jpg"},"support":{"url":"https://reqres.in/#support-heading","text":"To keep ReqRes free, contributions towards server costs are appreciated!"}}
]]></system-out>
  </testcase>
  <testcase name="checkResponseTime" classname="com.RestAssured.testCases.TC003_GET_REQUEST" time="0.004">
    <system-out><![CDATA[ INFO [main] (TC003_GET_REQUEST.java:56)- *****************Checking Response Time*********************
 INFO [main] (TC003_GET_REQUEST.java:59)- Response Time is==> 180
]]></system-out>
  </testcase>
  <testcase name="checkServerType" classname="com.RestAssured.testCases.TC003_GET_REQUEST" time="0.006">
    <system-out><![CDATA[ INFO [main] (TC003_GET_REQUEST.java:87)- *****************Checking Server Type*********************
 INFO [main] (TC003_GET_REQUEST.java:90)- Server Type is ==> cloudflare
]]></system-out>
  </testcase>
  <testcase name="checkStatusCode" classname="com.RestAssured.testCases.TC003_GET_REQUEST" time="0.004">
    <system-out><![CDATA[ INFO [main] (TC003_GET_REQUEST.java:46)- *****************Checking Status Code*********************
 INFO [main] (TC003_GET_REQUEST.java:49)- Status Code==> 200
]]></system-out>
  </testcase>
  <testcase name="checkStatusLine" classname="com.RestAssured.testCases.TC003_GET_REQUEST" time="0.003">
    <system-out><![CDATA[ INFO [main] (TC003_GET_REQUEST.java:69)- *****************Checking Status Line*********************
 INFO [main] (TC003_GET_REQUEST.java:72)- Status Line is==> HTTP/1.1 200 OK
]]></system-out>
  </testcase>
  <testcase name="checkContentType" classname="com.RestAssured.testCases.TC004_PUT_REQUEST" time="0.017">
    <system-out><![CDATA[ INFO [main] (TC003_GET_REQUEST.java:117)- *****************Finished TC003_Get_Single_User_Details*********************
 INFO [main] (TC004_PUT_REQUEST.java:22)- *****************Started TC004_Update_User_Details*********************
 INFO [main] (TC004_PUT_REQUEST.java:89)- *****************Checking Content Type*********************
 INFO [main] (TC004_PUT_REQUEST.java:92)- Content type is ==> application/json; charset=utf-8
]]></system-out>
  </testcase>
  <testcase name="checkResponseTime" classname="com.RestAssured.testCases.TC004_PUT_REQUEST" time="0.007">
    <system-out><![CDATA[ INFO [main] (TC004_PUT_REQUEST.java:67)- *****************Checking Response Time*********************
 INFO [main] (TC004_PUT_REQUEST.java:70)- Response Time is==> 363
]]></system-out>
  </testcase>
  <testcase name="checkServerType" classname="com.RestAssured.testCases.TC004_PUT_REQUEST" time="0.006">
    <system-out><![CDATA[ INFO [main] (TC004_PUT_REQUEST.java:98)- *****************Checking Server Type*********************
 INFO [main] (TC004_PUT_REQUEST.java:101)- Server Type is ==> cloudflare
]]></system-out>
  </testcase>
  <testcase name="checkStatusCode" classname="com.RestAssured.testCases.TC004_PUT_REQUEST" time="0.007">
    <system-out><![CDATA[ INFO [main] (TC004_PUT_REQUEST.java:57)- *****************Checking Status Code*********************
 INFO [main] (TC004_PUT_REQUEST.java:60)- Status Code==> 200
]]></system-out>
  </testcase>
  <testcase name="checkStatusLine" classname="com.RestAssured.testCases.TC004_PUT_REQUEST" time="0.001">
    <system-out><![CDATA[ INFO [main] (TC004_PUT_REQUEST.java:80)- *****************Checking Status Line*********************
 INFO [main] (TC004_PUT_REQUEST.java:83)- Status Line is==> HTTP/1.1 200 OK
]]></system-out>
  </testcase>
  <testcase name="checkSuccessCode" classname="com.RestAssured.testCases.TC004_PUT_REQUEST" time="0.026">
    <system-out><![CDATA[ INFO [main] (TC004_PUT_REQUEST.java:45)- *****************Checking Success Code*********************
 INFO [main] (TC004_PUT_REQUEST.java:48)- Success Code ==> JohnM
]]></system-out>
  </testcase>
  <testcase name="checkResponseTime" classname="com.RestAssured.testCases.TC005_DELETE_REQUEST" time="0.003">
    <system-out><![CDATA[ INFO [main] (TC004_PUT_REQUEST.java:110)- *****************Finished TC004_Update_User_Details*********************
 INFO [main] (TC005_DELETE_REQUEST.java:19)- *****************Started TC005_Delete_First_User*********************
 INFO [main] (TC005_DELETE_REQUEST.java:53)- *****************Checking Response Time*********************
 INFO [main] (TC005_DELETE_REQUEST.java:56)- Response Time is==> 376
]]></system-out>
  </testcase>
  <testcase name="checkServerType" classname="com.RestAssured.testCases.TC005_DELETE_REQUEST" time="0.013">
    <system-out><![CDATA[ INFO [main] (TC005_DELETE_REQUEST.java:75)- *****************Checking Server Type*********************
 INFO [main] (TC005_DELETE_REQUEST.java:78)- Server Type is ==> cloudflare
]]></system-out>
  </testcase>
  <testcase name="checkStatusCode" classname="com.RestAssured.testCases.TC005_DELETE_REQUEST" time="0.001">
    <system-out><![CDATA[ INFO [main] (TC005_DELETE_REQUEST.java:43)- *****************Checking Status Code*********************
 INFO [main] (TC005_DELETE_REQUEST.java:46)- Status Code==> 204
]]></system-out>
  </testcase>
  <testcase name="checkStatusLine" classname="com.RestAssured.testCases.TC005_DELETE_REQUEST" time="0.006">
    <system-out><![CDATA[ INFO [main] (TC005_DELETE_REQUEST.java:66)- *****************Checking Status Line*********************
 INFO [main] (TC005_DELETE_REQUEST.java:69)- Status Line is==> HTTP/1.1 204 No Content
]]></system-out>
  </testcase>
  <testcase name="getListOfUsersAll_Nodes" classname="com.RestAssured.testCases.TC006_GET_REQUEST" time="0.552">
    <system-out><![CDATA[ INFO [main] (TC005_DELETE_REQUEST.java:87)- *****************Finished TC005_Delete_First_User*********************
Janet
Weaver
https://reqres.in/img/faces/2-image.jpg
https://reqres.in/#support-heading
To keep ReqRes free, contributions towards server costs are appreciated!
]]></system-out>
  </testcase>
</testsuite>